Atap plastik gelombang 80 x 180,23,306
Atap Fiber Glass Tipis 80 x 180 (gelombang),11,156
Atap Fiber Glass Tebal 80 x 180 (gelombang),9,97
Atap Alumunium Natural USR 26(JAINDO),17,276
Atap Alumunium warna USR 26(JAINDO),18,224
Atap Asbes Gel. Kecil 80x180x4 mm,23,458
Atap Asbes Gel. besar 80x180x5 mm,21,287
Atap Asbes Gel. 300cmx105cmx4 mm,26,357
Atap Seng Gel. 150cmx102cmx4mm,18,228
Atap Seng Gel. 150cmx102cmx5mm,21,238
Atap Seng Gel. 180cmx102cmx5mm,23,279
Atap Seng Gel. 210cmx105cmx4mm,17,168
Atap Seng Gel. 240cmx105cmx4mm,14,117
Atap Seng Gel. 270cmx105cmx4mm,11,119
Atap Seng Gel. 300cmx105cmx4mm,8,107
"Aluminium Foile ukuran 1,2 x 50m",9,49
"Nok Atas Metal (rainbow roof) uk. 1,1m x 5cm x 6cm",7,142
Nok Atas Bulat 60cm x 14cm,10,425
Nok Prima 90cm x 20cm,12,386
Nok Pinggir Metal (rainbow roof),5,72
Nok Stel gelombang,13,535
Nok Atap Seng,9,348
"Nok Standar 40 cm 18,SWG 22",17,783
Plat Asbes tebal 4mm,14,228
Plat Asbes tebal 3.5mm,11,174
